{
    "backend": {
        "extrainfo_file": "cached-extrainfo",
        "networkstatus_file": "networkstatus-bridges",
        "descriptors_file": "bridge-descriptors",
        "blocklist_file": "",
        "allowlist_file": "",
        "bridgestrap_endpoint": "http://127.0.0.1:5001/bridge-state",
        "api_endpoint_resources": "/resources",
        "api_endpoint_resource_stream": "/resource-stream",
        "api_endpoint_targets": "/targets",
        "web_endpoint_status": "/status",
        "web_endpoint_metrics": "/rdsys-backend-metrics",
        "storage_dir": "/tmp/storage",
        "assignments_file": "./assignments.log",
        "resources": {
                "vanilla": {
			"unpartitioned": false,
			"stored": false,
			"distributors": ["https", "salmon"]
		},
		"obfs2": {},
		"obfs3": {},
		"obfs4": {},
		"scramblesuit": {},
		"tblink": {
			"unpartitioned": true,
			"stored": true
		}
        },
        "api_tokens": {
                "https": "HttpsApiTokenPlaceholder",
                "salmon": "SalmonApiTokenPlaceholder",
                "stub": "StubApiTokenPlaceholder",
                "gettor": "GettorApiTokenPlaceholder",
                "moat": "MoatApiTokenPlaceholder"
        },
        "web_api": {
            "api_address": "127.0.0.1:7100",
            "cert_file": "",
            "key_file": ""
        },
        "distribution_proportions": {
            "https": 1,
            "salmon": 5,
            "stub": 3
        }
    },
    "distributors": {
        "https": {
            "resources": ["obfs4", "vanilla"],
            "web_api": {
                "api_address": "127.0.0.1:7200",
                "cert_file": "",
                "key_file": ""
            }
        },
        "salmon": {
            "working_dir": "/tmp/salmon/",
            "resources": ["obfs4", "vanilla"],
            "web_api": {
                "api_address": "127.0.0.1:7300",
                "cert_file": "",
                "key_file": ""
            }
        },
        "stub": {
            "resources": ["obfs4"],
            "web_api": {
                "api_address": "127.0.0.1:7400",
                "cert_file": "",
                "key_file": ""
            }
        },
        "gettor": {
            "resources": ["tblink"],
            "metrics_address": "127.0.0.1:7700",
            "email": {
                "address": "gettor@example.com",
                "smtp_server": "smt.example.com:25",
                "smtp_username": "gettor",
                "smtp_password": "pass",
                "imap_server": "imaps://imap.example.com:993",
                "imap_username": "gettor",
                "imap_password": "pass"
            }
        },
        "moat": {
            "resources": ["obfs4", "vanilla"],
            "geoipdb":  "/usr/share/tor/geoip",
            "geoip6db": "/usr/share/tor/geoip6",
            "circumvention_map": "circumvention.json",
            "circumvention_defaults": "circumvention_defaults.json",
            "num_bridges_per_request": 3,
            "rotation_period_hours": 24,
            "num_periods": 30,
            "builtin_bridges_url": "https://gitweb.torproject.org/builders/tor-browser-build.git/plain/projects/common/",
            "builtin_bridges_types": ["meek-azure", "obfs4", "snowflake"],
	    "shim_token": "",
	    "dummy_bridges_file": "",
            "web_api": {
                "api_address": "127.0.0.1:7500",
                "cert_file": "",
                "key_file": ""
            }
        },
        "telegram": {
            "resource": "obfs4",
            "num_bridges_per_request": 2,
	    "rotation_period_hours": 24,
	    "token": "",
	    "min_user_id": 0,
	    "updater_tokens": {
	        "name": "TokenPlaceholder"
	    },
	    "storage_dir": "/tmp/storage_telegram",
	    "api_address": "127.0.0.1:7600"
        }
    },
    "updaters": {
        "gettor": {
            "github": {
                "auth_token": "",
                "owner": "TheTorProject",
                "repo": "gettorbrowser"
            },
            "gitlab": {
                "auth_token": "",
                "owner": "TheTorProject"
            },
            "s3": [
                {
                    "access_key": "",
                    "access_secret": "",
                    "signing_method": "archive_org_dangerous_workaround",
                    "endpoint_url": "https://s3.us.archive.org/",
                    "endpoint_region": "",
                    "name": "archive_org",
                    "bucket": "",
                    "name_procedural_generation_seed": "SECRET"
                },
                {
                    "access_key": "",
                    "access_secret": "",
                    "signing_method": "v4",
                    "endpoint_url": "https://s3.fr-par.scw.cloud",
                    "endpoint_region": "fr-par",
                    "name": "scaleway",
                    "bucket": "get-tor",
                    "name_procedural_generation_seed": ""
                }
            ],
            "gdrive": {
                "app_credential_path": "",
                "user_credential_path": "",
                "parent_folder_id": ""
	    }
        }
    }
}
